title:          Chapitre 1
ID:             39
type:           folder
POV:            0
notes:          {P:1:Insertion Io-4 Vesta}
label:          3
status:         2
compile:        2
charCount:      12721


